<?xml version="1.0" encoding="UTF-8" standalone="no"?>
<!-- Created with Inkscape (http://www.inkscape.org/) -->
<svg
   xmlns:xml="http://www.w3.org/XML/1998/namespace"
   xmlns:dc="http://purl.org/dc/elements/1.1/"
   xmlns:cc="http://web.resource.org/cc/"
   xmlns:rdf="http://www.w3.org/1999/02/22-rdf-syntax-ns#"
   xmlns:svg="http://www.w3.org/2000/svg"
   xmlns="http://www.w3.org/2000/svg"
   xmlns:sodipodi="http://sodipodi.sourceforge.net/DTD/sodipodi-0.dtd"
   xmlns:inkscape="http://www.inkscape.org/namespaces/inkscape"
   sodipodi:docname="shapes-f11.svg"
   sodipodi:docbase="/home/aaron/notes/inkdoc/shapes"
   inkscape:version="0.41+cvs"
   sodipodi:version="0.32"
   id="svg4254"
   height="1052.3622047"
   width="744.09448819">
  <defs
     id="defs3" />
  <sodipodi:namedview
     inkscape:window-y="21"
     inkscape:window-x="4"
     inkscape:window-height="513"
     inkscape:window-width="753"
     inkscape:current-layer="layer1"
     inkscape:document-units="px"
     inkscape:cy="927.27400"
     inkscape:cx="193.45713"
     inkscape:zoom="1.4000000"
     inkscape:pageshadow="2"
     inkscape:pageopacity="0.0"
     borderopacity="1.0"
     bordercolor="#666666"
     pagecolor="#ffffff"
     id="base" />
  <metadata
     id="metadata4">
    <rdf:RDF
       id="RDF5">
      <cc:Work
         id="Work6"
         rdf:about="">
        <dc:format
           id="format7">image/svg+xml</dc:format>
        <dc:type
           rdf:resource="http://purl.org/dc/dcmitype/StillImage"
           id="type9" />
      </cc:Work>
    </rdf:RDF>
  </metadata>
  <g
     id="layer1"
     inkscape:groupmode="layer"
     inkscape:label="Layer 1">
    <g
       sodipodi:insensitive="true"
       transform="translate(0.000000,-3203.903)"
       id="g4447">
      <path
         sodipodi:nodetypes="cc"
         id="path3194"
         d="M 78.137482,3274.6928 L 30.979407,3247.7189"
         style="fill:none;fill-opacity:0.75000000;fill-rule:evenodd;stroke:#d3d3d3;stroke-width:0.25000000pt;stroke-linecap:butt;stroke-linejoin:miter;stroke-opacity:1.0000000" />
      <path
         sodipodi:nodetypes="cc"
         id="path3195"
         d="M 82.405274,3271.7422 L 41.756105,3231.9579"
         style="fill:none;fill-opacity:0.75000000;fill-rule:evenodd;stroke:#d3d3d3;stroke-width:0.25000000pt;stroke-linecap:butt;stroke-linejoin:miter;stroke-opacity:1.0000000" />
      <path
         sodipodi:open="true"
         transform="matrix(1.157706,0.000000,0.000000,1.157706,21.52208,-466.2171)"
         sodipodi:end="3.9269908"
         sodipodi:start="3.6651914"
         d="M 11.440900,3210.0163 A 59.578407,58.560177 0 0 1 20.909019,3197.8881"
         sodipodi:ry="58.560177"
         sodipodi:rx="59.578407"
         sodipodi:cy="3239.2964"
         sodipodi:cx="63.037315"
         id="path3196"
         style="color:#000000;fill:none;fill-opacity:0.99665552;fill-rule:evenodd;stroke:#d3d3d3;stroke-width:0.64783323;stroke-linecap:butt;stroke-linejoin:miter;marker:none;marker-start:none;marker-mid:none;marker-end:none;stroke-miterlimit:4.0000000;stroke-dashoffset:0.0000000;stroke-opacity:1.0000000"
         sodipodi:type="arc" />
      <text
         sodipodi:linespacing="120.00000%"
         transform="matrix(0.709390,0.000000,0.000000,0.709390,10.28585,1617.123)"
         id="text3818"
         y="2279.1907"
         x="30.19973"
         style="font-size:8.3999996;font-style:normal;font-variant:normal;font-weight:normal;font-stretch:normal;line-height:120.00000%;writing-mode:lr-tb;text-anchor:start;fill:#d3d3d3;fill-opacity:1.0000000;stroke:none;stroke-width:1.0000000pt;stroke-linecap:butt;stroke-linejoin:miter;stroke-opacity:1.0000000;font-family:sans-serif"
         xml:space="preserve"><tspan
           y="2279.1907"
           x="30.199730"
           id="tspan3819"
           sodipodi:role="line" /><tspan
           style="fill:#d3d3d3;fill-opacity:1.0000000"
           id="tspan3821" /><tspan
           dy="0 0"
           dx="0 -0.23659326"
           y="2289.2707"
           x="30.199730"
           id="tspan3823"
           sodipodi:role="line">15</tspan></text>
      <path
         transform="matrix(0.882077,0.000000,0.000000,0.882077,4.519106,381.4818)"
         d="M 41.374792 3237.9563 A 0.89163345 0.89163345 0 1 1  39.591525,3237.9563 A 0.89163345 0.89163345 0 1 1  41.374792 3237.9563 z"
         sodipodi:ry="0.89163345"
         sodipodi:rx="0.89163345"
         sodipodi:cy="3237.9563"
         sodipodi:cx="40.483158"
         id="path3825"
         style="color:#000000;fill:none;fill-opacity:0.75000000;fill-rule:evenodd;stroke:#d3d3d3;stroke-width:0.48604000;stroke-linecap:butt;stroke-linejoin:miter;marker:none;marker-start:none;marker-mid:none;marker-end:none;stroke-miterlimit:4.0000000;stroke-dashoffset:0.0000000;stroke-opacity:1.0000000"
         sodipodi:type="arc" />
    </g>
    <text
       sodipodi:insensitive="true"
       sodipodi:linespacing="120.00000%"
       id="text3883"
       y="4.4230723"
       x="61.438835"
       style="font-size:5.9588757;font-style:normal;font-variant:normal;font-weight:normal;font-stretch:normal;line-height:120.00000%;writing-mode:lr-tb;text-anchor:start;fill:#000000;fill-opacity:1.0000000;stroke:none;stroke-width:1.0000000pt;stroke-linecap:butt;stroke-linejoin:miter;stroke-opacity:1.0000000;font-family:sans-serif"
       xml:space="preserve"><tspan
         y="4.4230723"
         x="61.438835"
         id="tspan3884"
         sodipodi:role="line">Segments</tspan><tspan
         y="11.573723"
         x="61.438835"
         id="tspan3893"
         sodipodi:role="line" /></text>
    <text
       sodipodi:insensitive="true"
       sodipodi:linespacing="120.00000%"
       id="text3888"
       y="-2.6629279"
       x="224.43098"
       style="font-size:5.9588757;font-style:normal;font-variant:normal;font-weight:normal;font-stretch:normal;line-height:120.00000%;writing-mode:lr-tb;text-anchor:start;fill:#000000;fill-opacity:1.0000000;stroke:none;stroke-width:1.0000000pt;stroke-linecap:butt;stroke-linejoin:miter;stroke-opacity:1.0000000;font-family:sans-serif"
       xml:space="preserve"><tspan
         y="-2.6629279"
         x="224.43098"
         id="tspan3889"
         sodipodi:role="line" /><tspan
         y="4.4877232"
         x="224.43098"
         id="tspan3891"
         sodipodi:role="line">Arcs</tspan></text>
    <path
       transform="translate(31.46863,-3159.292)"
       sodipodi:end="5.4977871"
       sodipodi:start="2.2993372"
       d="M 42.590839,3247.3940 A 30.710485,10.852578 0 1 1 84.752907,3231.6225 L 63.037315,3239.2964 z"
       sodipodi:ry="10.852578"
       sodipodi:rx="30.710485"
       sodipodi:cy="3239.2964"
       sodipodi:cx="63.037315"
       id="path3234"
       style="stroke-opacity:1.0000000;stroke-dashoffset:0.0000000;stroke-miterlimit:4.0000000;marker-end:none;marker-mid:none;marker-start:none;marker:none;stroke-linejoin:miter;stroke-linecap:butt;stroke-width:0.75000000;stroke:#000000;fill-rule:evenodd;fill-opacity:0.99665552;fill:none;color:#000000"
       sodipodi:type="arc" />
    <path
       sodipodi:end="5.4977871"
       sodipodi:start="2.2993372"
       transform="translate(31.46863,-3159.292)"
       d="M 42.590839,3262.3992 A 30.710485,30.962814 0 1 1 84.752907,3217.4024 L 63.037315,3239.2964 z"
       sodipodi:ry="30.962814"
       sodipodi:rx="30.710485"
       sodipodi:cy="3239.2964"
       sodipodi:cx="63.037315"
       id="path3856"
       style="stroke-opacity:1.0000000;stroke-dashoffset:0.0000000;stroke-miterlimit:4.0000000;marker-end:none;marker-mid:none;marker-start:none;marker:none;stroke-linejoin:miter;stroke-linecap:butt;stroke-width:0.75000000;stroke:#000000;fill-rule:evenodd;fill-opacity:0.99665552;fill:none;color:#000000"
       sodipodi:type="arc" />
    <path
       sodipodi:end="5.4977871"
       sodipodi:start="2.2993372"
       transform="translate(31.46863,-3159.292)"
       d="M 42.590839,3282.9909 A 30.710485,58.560177 0 1 1 84.752907,3197.8881 L 63.037315,3239.2964 z"
       sodipodi:ry="58.560177"
       sodipodi:rx="30.710485"
       sodipodi:cy="3239.2964"
       sodipodi:cx="63.037315"
       id="path3857"
       style="stroke-opacity:1.0000000;stroke-dashoffset:0.0000000;stroke-miterlimit:4.0000000;marker-end:none;marker-mid:none;marker-start:none;marker:none;stroke-linejoin:miter;stroke-linecap:butt;stroke-width:0.75000000;stroke:#000000;fill-rule:evenodd;fill-opacity:0.99665552;fill:none;color:#000000"
       sodipodi:type="arc" />
    <path
       transform="translate(31.46863,-3159.292)"
       sodipodi:end="3.1554016"
       sodipodi:start="2.2993372"
       d="M 23.371107,3282.9909 A 59.578407,58.560177 0 0 1 3.4645884,3238.4878 L 63.037315,3239.2964 z"
       sodipodi:ry="58.560177"
       sodipodi:rx="59.578407"
       sodipodi:cy="3239.2964"
       sodipodi:cx="63.037315"
       id="path3858"
       style="stroke-opacity:1.0000000;stroke-dashoffset:0.0000000;stroke-miterlimit:4.0000000;marker-end:none;marker-mid:none;marker-start:none;marker:none;stroke-linejoin:miter;stroke-linecap:butt;stroke-width:0.75000000;stroke:#000000;fill-rule:evenodd;fill-opacity:0.99665552;fill:none;color:#000000"
       sodipodi:type="arc" />
    <path
       transform="translate(31.46863,-3159.292)"
       sodipodi:end="3.6651914"
       sodipodi:start="2.2993372"
       d="M 23.371107,3282.9909 A 59.578407,58.560177 0 0 1 11.440900,3210.0163 L 63.037315,3239.2964 z"
       sodipodi:ry="58.560177"
       sodipodi:rx="59.578407"
       sodipodi:cy="3239.2964"
       sodipodi:cx="63.037315"
       id="path3859"
       style="stroke-opacity:1.0000000;stroke-dashoffset:0.0000000;stroke-miterlimit:4.0000000;marker-end:none;marker-mid:none;marker-start:none;marker:none;stroke-linejoin:miter;stroke-linecap:butt;stroke-width:0.75000000;stroke:#000000;fill-rule:evenodd;fill-opacity:0.99665552;fill:none;color:#000000"
       sodipodi:type="arc" />
    <path
       transform="translate(31.46863,-3159.292)"
       sodipodi:end="3.9269908"
       sodipodi:start="2.2993372"
       d="M 23.371107,3282.9909 A 59.578407,58.560177 0 0 1 20.909019,3197.8881 L 63.037315,3239.2964 z"
       sodipodi:ry="58.560177"
       sodipodi:rx="59.578407"
       sodipodi:cy="3239.2964"
       sodipodi:cx="63.037315"
       id="path3860"
       style="stroke-opacity:1.0000000;stroke-dashoffset:0.0000000;stroke-miterlimit:4.0000000;marker-end:none;marker-mid:none;marker-start:none;marker:none;stroke-linejoin:miter;stroke-linecap:butt;stroke-width:0.75000000;stroke:#000000;fill-rule:evenodd;fill-opacity:0.99665552;fill:none;color:#000000"
       sodipodi:type="arc" />
    <path
       transform="translate(31.46863,-3159.292)"
       sodipodi:end="4.1887902"
       sodipodi:start="2.2993372"
       d="M 23.371107,3282.9909 A 59.578407,58.560177 0 0 1 33.248111,3188.5818 L 63.037315,3239.2964 z"
       sodipodi:ry="58.560177"
       sodipodi:rx="59.578407"
       sodipodi:cy="3239.2964"
       sodipodi:cx="63.037315"
       id="path3861"
       style="stroke-opacity:1.0000000;stroke-dashoffset:0.0000000;stroke-miterlimit:4.0000000;marker-end:none;marker-mid:none;marker-start:none;marker:none;stroke-linejoin:miter;stroke-linecap:butt;stroke-width:0.75000000;stroke:#000000;fill-rule:evenodd;fill-opacity:0.99665552;fill:none;color:#000000"
       sodipodi:type="arc" />
    <path
       transform="translate(31.46863,-3159.292)"
       sodipodi:end="4.1887902"
       sodipodi:start="2.2993372"
       d="M 52.956536,3282.9909 A 15.141271,58.560177 0 0 1 55.466680,3188.5818 L 63.037315,3239.2964 z"
       sodipodi:ry="58.560177"
       sodipodi:rx="15.141271"
       sodipodi:cy="3239.2964"
       sodipodi:cx="63.037315"
       id="path3862"
       style="stroke-opacity:1.0000000;stroke-dashoffset:0.0000000;stroke-miterlimit:4.0000000;marker-end:none;marker-mid:none;marker-start:none;marker:none;stroke-linejoin:miter;stroke-linecap:butt;stroke-width:0.75000000;stroke:#000000;fill-rule:evenodd;fill-opacity:0.99665552;fill:none;color:#000000"
       sodipodi:type="arc" />
    <path
       sodipodi:end="5.4977871"
       sodipodi:start="2.2993372"
       transform="translate(31.46863,-3159.292)"
       d="M 13.005410,3247.3940 A 75.147621,10.852578 0 1 1 116.17471,3231.6225 L 63.037315,3239.2964 z"
       sodipodi:ry="10.852578"
       sodipodi:rx="75.147621"
       sodipodi:cy="3239.2964"
       sodipodi:cx="63.037315"
       id="path3864"
       style="stroke-opacity:1.0000000;stroke-dashoffset:0.0000000;stroke-miterlimit:4.0000000;marker-end:none;marker-mid:none;marker-start:none;marker:none;stroke-linejoin:miter;stroke-linecap:butt;stroke-width:0.75000000;stroke:#000000;fill-rule:evenodd;fill-opacity:0.99665552;fill:none;color:#000000"
       sodipodi:type="arc" />
    <path
       sodipodi:open="true"
       transform="translate(172.8890,-3159.292)"
       sodipodi:end="5.4977871"
       sodipodi:start="2.2993372"
       d="M 42.590839,3247.3940 A 30.710485,10.852578 0 1 1 84.752907,3231.6225"
       sodipodi:ry="10.852578"
       sodipodi:rx="30.710485"
       sodipodi:cy="3239.2964"
       sodipodi:cx="63.037315"
       id="path3865"
       style="stroke-opacity:1.0000000;stroke-dashoffset:0.0000000;stroke-miterlimit:4.0000000;marker-end:none;marker-mid:none;marker-start:none;marker:none;stroke-linejoin:miter;stroke-linecap:butt;stroke-width:0.75000000;stroke:#000000;fill-rule:evenodd;fill-opacity:0.99665552;fill:none;color:#000000"
       sodipodi:type="arc" />
    <path
       sodipodi:open="true"
       transform="translate(172.8890,-3159.292)"
       sodipodi:end="5.4977871"
       sodipodi:start="2.2993372"
       d="M 42.590839,3262.3992 A 30.710485,30.962814 0 1 1 84.752907,3217.4024"
       sodipodi:ry="30.962814"
       sodipodi:rx="30.710485"
       sodipodi:cy="3239.2964"
       sodipodi:cx="63.037315"
       id="path3866"
       style="stroke-opacity:1.0000000;stroke-dashoffset:0.0000000;stroke-miterlimit:4.0000000;marker-end:none;marker-mid:none;marker-start:none;marker:none;stroke-linejoin:miter;stroke-linecap:butt;stroke-width:0.75000000;stroke:#000000;fill-rule:evenodd;fill-opacity:0.99665552;fill:none;color:#000000"
       sodipodi:type="arc" />
    <path
       sodipodi:open="true"
       transform="translate(172.8890,-3159.292)"
       sodipodi:end="5.4977871"
       sodipodi:start="2.2993372"
       d="M 42.590839,3282.9909 A 30.710485,58.560177 0 1 1 84.752907,3197.8881"
       sodipodi:ry="58.560177"
       sodipodi:rx="30.710485"
       sodipodi:cy="3239.2964"
       sodipodi:cx="63.037315"
       id="path3867"
       style="stroke-opacity:1.0000000;stroke-dashoffset:0.0000000;stroke-miterlimit:4.0000000;marker-end:none;marker-mid:none;marker-start:none;marker:none;stroke-linejoin:miter;stroke-linecap:butt;stroke-width:0.75000000;stroke:#000000;fill-rule:evenodd;fill-opacity:0.99665552;fill:none;color:#000000"
       sodipodi:type="arc" />
    <path
       sodipodi:open="true"
       transform="translate(172.8890,-3159.292)"
       sodipodi:end="3.1554016"
       sodipodi:start="2.2993372"
       d="M 23.371107,3282.9909 A 59.578407,58.560177 0 0 1 3.4645884,3238.4878"
       sodipodi:ry="58.560177"
       sodipodi:rx="59.578407"
       sodipodi:cy="3239.2964"
       sodipodi:cx="63.037315"
       id="path3868"
       style="stroke-opacity:1.0000000;stroke-dashoffset:0.0000000;stroke-miterlimit:4.0000000;marker-end:none;marker-mid:none;marker-start:none;marker:none;stroke-linejoin:miter;stroke-linecap:butt;stroke-width:0.75000000;stroke:#000000;fill-rule:evenodd;fill-opacity:0.99665552;fill:none;color:#000000"
       sodipodi:type="arc" />
    <path
       sodipodi:open="true"
       transform="translate(172.8890,-3159.292)"
       sodipodi:end="3.6651914"
       sodipodi:start="2.2993372"
       d="M 23.371107,3282.9909 A 59.578407,58.560177 0 0 1 11.440900,3210.0163"
       sodipodi:ry="58.560177"
       sodipodi:rx="59.578407"
       sodipodi:cy="3239.2964"
       sodipodi:cx="63.037315"
       id="path3869"
       style="stroke-opacity:1.0000000;stroke-dashoffset:0.0000000;stroke-miterlimit:4.0000000;marker-end:none;marker-mid:none;marker-start:none;marker:none;stroke-linejoin:miter;stroke-linecap:butt;stroke-width:0.75000000;stroke:#000000;fill-rule:evenodd;fill-opacity:0.99665552;fill:none;color:#000000"
       sodipodi:type="arc" />
    <path
       sodipodi:open="true"
       transform="translate(172.8890,-3159.292)"
       sodipodi:end="3.9269908"
       sodipodi:start="2.2993372"
       d="M 23.371107,3282.9909 A 59.578407,58.560177 0 0 1 20.909019,3197.8881"
       sodipodi:ry="58.560177"
       sodipodi:rx="59.578407"
       sodipodi:cy="3239.2964"
       sodipodi:cx="63.037315"
       id="path3870"
       style="stroke-opacity:1.0000000;stroke-dashoffset:0.0000000;stroke-miterlimit:4.0000000;marker-end:none;marker-mid:none;marker-start:none;marker:none;stroke-linejoin:miter;stroke-linecap:butt;stroke-width:0.75000000;stroke:#000000;fill-rule:evenodd;fill-opacity:0.99665552;fill:none;color:#000000"
       sodipodi:type="arc" />
    <path
       sodipodi:open="true"
       transform="translate(172.8890,-3159.292)"
       sodipodi:end="4.1887902"
       sodipodi:start="2.2993372"
       d="M 23.371107,3282.9909 A 59.578407,58.560177 0 0 1 33.248111,3188.5818"
       sodipodi:ry="58.560177"
       sodipodi:rx="59.578407"
       sodipodi:cy="3239.2964"
       sodipodi:cx="63.037315"
       id="path3871"
       style="stroke-opacity:1.0000000;stroke-dashoffset:0.0000000;stroke-miterlimit:4.0000000;marker-end:none;marker-mid:none;marker-start:none;marker:none;stroke-linejoin:miter;stroke-linecap:butt;stroke-width:0.75000000;stroke:#000000;fill-rule:evenodd;fill-opacity:0.99665552;fill:none;color:#000000"
       sodipodi:type="arc" />
    <path
       sodipodi:open="true"
       transform="translate(172.8890,-3159.292)"
       sodipodi:end="4.1887902"
       sodipodi:start="2.2993372"
       d="M 52.956536,3282.9909 A 15.141271,58.560177 0 0 1 55.466680,3188.5818"
       sodipodi:ry="58.560177"
       sodipodi:rx="15.141271"
       sodipodi:cy="3239.2964"
       sodipodi:cx="63.037315"
       id="path3872"
       style="stroke-opacity:1.0000000;stroke-dashoffset:0.0000000;stroke-miterlimit:4.0000000;marker-end:none;marker-mid:none;marker-start:none;marker:none;stroke-linejoin:miter;stroke-linecap:butt;stroke-width:0.75000000;stroke:#000000;fill-rule:evenodd;fill-opacity:0.99665552;fill:none;color:#000000"
       sodipodi:type="arc" />
    <path
       sodipodi:open="true"
       transform="translate(172.8890,-3159.292)"
       sodipodi:end="5.4977871"
       sodipodi:start="2.2993372"
       d="M 13.005410,3247.3940 A 75.147621,10.852578 0 1 1 116.17471,3231.6225"
       sodipodi:ry="10.852578"
       sodipodi:rx="75.147621"
       sodipodi:cy="3239.2964"
       sodipodi:cx="63.037315"
       id="path3873"
       style="stroke-opacity:1.0000000;stroke-dashoffset:0.0000000;stroke-miterlimit:4.0000000;marker-end:none;marker-mid:none;marker-start:none;marker:none;stroke-linejoin:miter;stroke-linecap:butt;stroke-width:0.75000000;stroke:#000000;fill-rule:evenodd;fill-opacity:0.99665552;fill:none;color:#000000"
       sodipodi:type="arc" />
    <path
       transform="translate(31.46863,-3159.292)"
       sodipodi:end="3.4033920"
       sodipodi:start="2.2993372"
       d="M 23.371107,3282.9909 A 59.578407,58.560177 0 0 1 5.4889924,3224.1399 L 63.037315,3239.2964 z"
       sodipodi:ry="58.560177"
       sodipodi:rx="59.578407"
       sodipodi:cy="3239.2964"
       sodipodi:cx="63.037315"
       id="path3925"
       style="stroke-opacity:1.0000000;stroke-dashoffset:0.0000000;stroke-miterlimit:4.0000000;marker-end:none;marker-mid:none;marker-start:none;marker:none;stroke-linejoin:miter;stroke-linecap:butt;stroke-width:0.75000000;stroke:#000000;fill-rule:evenodd;fill-opacity:0.99665552;fill:none;color:#000000"
       sodipodi:type="arc" />
  </g>
</svg>
