<?xml version="1.0" encoding="UTF-8" standalone="no"?>
<!-- Created with Inkscape (http://www.inkscape.org/) -->
<svg
   xmlns:dc="http://purl.org/dc/elements/1.1/"
   xmlns:cc="http://web.resource.org/cc/"
   xmlns:rdf="http://www.w3.org/1999/02/22-rdf-syntax-ns#"
   xmlns:svg="http://www.w3.org/2000/svg"
   xmlns="http://www.w3.org/2000/svg"
   xmlns:sodipodi="http://sodipodi.sourceforge.net/DTD/sodipodi-0.dtd"
   xmlns:inkscape="http://www.inkscape.org/namespaces/inkscape"
   width="744.09448819"
   height="1052.3622047"
   id="svg15699"
   sodipodi:version="0.32"
   inkscape:version="0.45+devel"
   sodipodi:docbase="C:\Documents and Settings\ryan\Desktop\tut"
   sodipodi:docname="interpolate-f10.svg"
   inkscape:output_extension="org.inkscape.output.svg.inkscape">
  <defs
     id="defs15701" />
  <sodipodi:namedview
     id="base"
     pagecolor="#ffffff"
     bordercolor="#666666"
     borderopacity="1.0"
     gridtolerance="10000"
     guidetolerance="10"
     objecttolerance="10"
     inkscape:pageopacity="0.0"
     inkscape:pageshadow="2"
     inkscape:zoom="1.4"
     inkscape:cx="119.59622"
     inkscape:cy="1025.9268"
     inkscape:document-units="px"
     inkscape:current-layer="layer1"
     inkscape:window-width="744"
     inkscape:window-height="664"
     inkscape:window-x="504"
     inkscape:window-y="184" />
  <metadata
     id="metadata15704">
    <rdf:RDF>
      <cc:Work
         rdf:about="">
        <dc:format>image/svg+xml</dc:format>
        <dc:type
           rdf:resource="http://purl.org/dc/dcmitype/StillImage" />
      </cc:Work>
    </rdf:RDF>
  </metadata>
  <g
     inkscape:label="Layer 1"
     inkscape:groupmode="layer"
     id="layer1">
    <g
       id="g2607"
       transform="translate(-19.278123,-16.358316)">
      <path
         inkscape:export-ydpi="88.379997"
         inkscape:export-filename="C:\Documents and Settings\ryan\Desktop\interpolate1.png"
         inkscape:export-xdpi="88.379997"
         d="M 39.567707,18.382395 C 49.686796,18.382395 57.833211,26.528795 57.833211,36.647896 C 57.833211,46.766996 49.686796,54.913395 39.567707,54.913395 C 29.448617,54.913395 21.302202,46.766996 21.302202,36.647896 C 21.302202,26.528795 29.448617,18.382395 39.567707,18.382395 z"
         id="path4460"
         style="fill:#00ccff;fill-opacity:1;stroke:#2e75ac;stroke-width:4.04815769;stroke-linejoin:round;stroke-miterlimit:4;stroke-opacity:1" />
      <path
         inkscape:export-ydpi="88.379997"
         inkscape:export-filename="C:\Documents and Settings\ryan\Desktop\interpolate1.png"
         d="M 282.98352,25.688595 L 264.71802,54.913395 L 246.45251,25.688595 L 282.98352,25.688595 z"
         inkscape:export-xdpi="88.379997"
         sodipodi:nodetypes="cccc"
         id="path4462"
         style="fill:#00ccff;fill-opacity:1;stroke:#2e75ac;stroke-width:4.04815769;stroke-linejoin:round;stroke-miterlimit:4;stroke-opacity:1" />
      <g
         transform="matrix(0.5218716,0,0,0.5218716,10.864771,-181.23611)"
         id="g4484">
        <path
           d="M 121.63265,384.50504 C 138.25265,384.50504 146.63265,405.88504 146.63265,422.50504 C 146.63265,439.12505 128.25265,444.50505 111.63265,444.50505 C 95.012654,444.50505 84.132654,431.12505 86.632654,414.50504 C 89.132654,397.88504 105.01265,384.50504 121.63265,384.50504 C 121.63265,384.50504 121.63265,384.50504 121.63265,384.50504"
           id="path4486"
           style="fill:#00ccff;fill-opacity:1;stroke:#2e75ac;stroke-width:7.75699997;stroke-linejoin:round;stroke-miterlimit:4;stroke-opacity:1" />
        <path
           d="M 188.26531,386.50504 C 202.11531,386.50504 203.26531,413.65504 203.26531,427.50504 C 203.26531,441.35505 182.11531,436.50505 168.26531,436.50505 C 154.41531,436.50505 148.26531,425.35505 153.26531,411.50504 C 158.26531,397.65504 174.41531,386.50504 188.26531,386.50504 C 188.26531,386.50504 188.26531,386.50504 188.26531,386.50504"
           id="path4488"
           style="fill:#00ccff;fill-opacity:1;stroke:#2e75ac;stroke-width:7.75699997;stroke-linejoin:round;stroke-miterlimit:4;stroke-opacity:1" />
        <path
           d="M 254.89796,388.50504 C 265.97796,388.50504 259.89796,421.42504 259.89796,432.50504 C 259.89796,443.58505 235.97796,428.50505 224.89796,428.50505 C 213.81796,428.50505 212.39796,419.58505 219.89796,408.50504 C 227.39796,397.42504 243.81796,388.50504 254.89796,388.50504 C 254.89796,388.50504 254.89796,388.50504 254.89796,388.50504"
           id="path4490"
           style="fill:#00ccff;fill-opacity:1;stroke:#2e75ac;stroke-width:7.75699997;stroke-linejoin:round;stroke-miterlimit:4;stroke-opacity:1" />
        <path
           d="M 321.53062,390.50504 C 329.84062,390.50504 316.53062,429.19505 316.53062,437.50505 C 316.53062,445.81505 289.84062,420.50504 281.53062,420.50504 C 273.22062,420.50504 276.53062,413.81504 286.53062,405.50504 C 296.53062,397.19504 313.22062,390.50504 321.53062,390.50504 C 321.53062,390.50504 321.53062,390.50504 321.53062,390.50504"
           id="path4492"
           style="fill:#00ccff;fill-opacity:1;stroke:#2e75ac;stroke-width:7.75699997;stroke-linejoin:round;stroke-miterlimit:4;stroke-opacity:1" />
        <path
           d="M 388.16327,392.50504 C 393.70327,392.50504 373.16327,436.96505 373.16327,442.50505 C 373.16327,448.04505 343.70327,412.50504 338.16327,412.50504 C 332.62327,412.50504 340.66327,408.04504 353.16327,402.50504 C 365.66327,396.96504 382.62327,392.50504 388.16327,392.50504 C 388.16327,392.50504 388.16327,392.50504 388.16327,392.50504"
           id="path4494"
           style="fill:#00ccff;fill-opacity:1;stroke:#2e75ac;stroke-width:7.75699997;stroke-linejoin:round;stroke-miterlimit:4;stroke-opacity:1" />
        <path
           d="M 454.79593,394.50504 C 457.56593,394.50504 429.79593,444.73505 429.79593,447.50505 C 429.79593,450.27505 397.56593,404.50504 394.79593,404.50504 C 392.02593,404.50504 404.79593,402.27504 419.79593,399.50504 C 434.79593,396.73504 452.02593,394.50504 454.79593,394.50504 C 454.79593,394.50504 454.79593,394.50504 454.79593,394.50504"
           id="path4496"
           style="fill:#00ccff;fill-opacity:1;stroke:#2e75ac;stroke-width:7.75699997;stroke-linejoin:round;stroke-miterlimit:4;stroke-opacity:1" />
      </g>
    </g>
  </g>
</svg>
