<?xml version="1.0" encoding="UTF-8" standalone="no"?>
<!-- Created with Inkscape (http://www.inkscape.org/) -->
<svg
   xmlns:dc="http://purl.org/dc/elements/1.1/"
   xmlns:cc="http://web.resource.org/cc/"
   xmlns:rdf="http://www.w3.org/1999/02/22-rdf-syntax-ns#"
   xmlns:svg="http://www.w3.org/2000/svg"
   xmlns="http://www.w3.org/2000/svg"
   xmlns:sodipodi="http://sodipodi.sourceforge.net/DTD/sodipodi-0.dtd"
   xmlns:inkscape="http://www.inkscape.org/namespaces/inkscape"
   sodipodi:docname="basic-f15.svg"
   sodipodi:docbase="/home/d/ink/doc-docbook/basic"
   inkscape:version="0.41+cvs"
   sodipodi:version="0.32"
   id="svg2928"
   height="1052.3622047"
   width="744.09448819">
  <defs
     id="defs3" />
  <sodipodi:namedview
     inkscape:window-y="12"
     inkscape:window-x="491"
     inkscape:window-height="513"
     inkscape:window-width="751"
     inkscape:current-layer="layer1"
     inkscape:document-units="px"
     inkscape:cy="1062.6922"
     inkscape:cx="271.57576"
     inkscape:zoom="0.98994949"
     inkscape:pageshadow="2"
     inkscape:pageopacity="0.0"
     borderopacity="1.0"
     bordercolor="#666666"
     pagecolor="#ffffff"
     id="base" />
  <metadata
     id="metadata4">
    <rdf:RDF
       id="RDF5">
      <cc:Work
         id="Work6"
         rdf:about="">
        <dc:format
           id="format7">image/svg+xml</dc:format>
        <dc:type
           rdf:resource="http://purl.org/dc/dcmitype/StillImage"
           id="type9" />
      </cc:Work>
    </rdf:RDF>
  </metadata>
  <g
     id="layer1"
     inkscape:groupmode="layer"
     inkscape:label="Layer 1">
    <path
       transform="matrix(0.395123,0.684370,-0.684370,0.395123,2780.015,-1592.865)"
       d="M 126.89077,3940.5291 C 125.17795,3943.3053 113.66371,3938.5420 110.97088,3940.2618 C 108.27806,3941.9815 108.25386,3954.2336 105.11415,3954.7867 C 101.97445,3955.3398 98.760694,3944.4671 95.570830,3943.6865 C 92.380966,3942.9059 82.264271,3949.4146 79.943986,3947.2296 C 77.623701,3945.0445 86.019590,3935.4104 84.600447,3932.4541 C 83.181304,3929.4977 72.168311,3929.3821 72.285146,3926.2119 C 72.401981,3923.0417 84.294455,3922.4155 85.789840,3919.6469 C 87.285224,3916.8782 82.845226,3906.4067 85.391486,3904.5289 C 87.937747,3902.6512 96.264593,3910.1959 99.467842,3909.5915 C 102.67109,3908.9872 106.76923,3900.0556 109.83241,3900.9084 C 112.89559,3901.7612 110.08487,3912.1937 112.61044,3914.2521 C 115.13600,3916.3105 125.25937,3913.5440 126.41255,3916.5480 C 127.56573,3919.5521 117.68601,3926.3170 117.64844,3929.4798 C 117.61087,3932.6426 128.60360,3937.7529 126.89077,3940.5291 z "
       inkscape:randomized="0.047000000"
       inkscape:rounded="0.21000000"
       inkscape:flatsided="false"
       sodipodi:arg2="0.97023339"
       sodipodi:arg1="0.52143444"
       sodipodi:r2="16.983238"
       sodipodi:r1="28.739008"
       sodipodi:cy="3927.1016"
       sodipodi:cx="100.73942"
       sodipodi:sides="7"
       id="path2575"
       style="color:#000000;fill:#ac7335;fill-opacity:1.0000000;fill-rule:nonzero;stroke:none;stroke-width:3.0000000pt;stroke-linecap:butt;stroke-linejoin:miter;marker:none;marker-start:none;marker-mid:none;marker-end:none;stroke-miterlimit:4.0000000;stroke-dashoffset:0.0000000;stroke-opacity:1.0000000"
       sodipodi:type="star" />
    <path
       transform="matrix(0.832600,0.480703,-0.480703,0.832600,1947.479,-3288.386)"
       d="M 107.61985,3941.5994 C 107.09226,3943.7104 98.543572,3938.0797 96.669124,3939.2057 C 94.171555,3940.7060 94.696972,3951.0596 91.806537,3951.7997 C 89.637239,3952.3551 90.222367,3943.2777 88.243929,3942.3368 C 85.607802,3941.0832 77.214948,3946.4420 75.022690,3944.4866 C 73.377380,3943.0191 81.973213,3938.7922 81.916873,3936.5427 C 81.841804,3933.5454 72.273491,3926.6900 72.834776,3923.7853 C 73.256026,3921.6053 82.307516,3928.9670 84.231695,3927.8033 C 86.795527,3926.2528 86.569242,3915.2048 89.461116,3914.5603 C 91.631494,3914.0766 91.154197,3923.6481 93.121052,3924.6568 C 95.741746,3926.0007 105.18210,3921.2828 107.33521,3923.3376 C 108.95114,3924.8798 99.963343,3928.1235 100.07422,3930.3246 C 100.22197,3933.2574 108.32281,3938.7866 107.61985,3941.5994 z "
       inkscape:randomized="0.047000000"
       inkscape:rounded="0.21000000"
       inkscape:flatsided="false"
       sodipodi:arg2="0.77161843"
       sodipodi:arg1="0.48833395"
       sodipodi:r2="9.3934679"
       sodipodi:r1="19.212250"
       sodipodi:cy="3933.4641"
       sodipodi:cx="90.665482"
       sodipodi:sides="6"
       id="path2574"
       style="color:#000000;fill:#ff9400;fill-opacity:1.0000000;fill-rule:nonzero;stroke:none;stroke-width:3.0000000pt;stroke-linecap:butt;stroke-linejoin:miter;marker:none;marker-start:none;marker-mid:none;marker-end:none;stroke-miterlimit:4.0000000;stroke-dashoffset:0.0000000;stroke-opacity:1.0000000"
       sodipodi:type="star" />
    <rect
       rx="10.424490"
       ry="10.424490"
       y="-0.21457997"
       x="44.415947"
       height="56.564163"
       width="171.78746"
       id="rect3197"
       style="color:#000000;fill:#2dd268;fill-opacity:0.29608938;fill-rule:nonzero;stroke:none;stroke-width:3.0000000pt;stroke-linecap:butt;stroke-linejoin:miter;marker:none;marker-start:none;marker-mid:none;marker-end:none;stroke-miterlimit:4.0000000;stroke-dashoffset:0.0000000;stroke-opacity:1.0000000" />
  </g>
</svg>
