<?xml version="1.0" encoding="UTF-8" standalone="no"?>
<!-- Created with Inkscape (http://www.inkscape.org/) -->

<svg
   xmlns:dc="http://purl.org/dc/elements/1.1/"
   xmlns:cc="http://creativecommons.org/ns#"
   xmlns:rdf="http://www.w3.org/1999/02/22-rdf-syntax-ns#"
   xmlns:svg="http://www.w3.org/2000/svg"
   xmlns="http://www.w3.org/2000/svg"
   xmlns:sodipodi="http://sodipodi.sourceforge.net/DTD/sodipodi-0.dtd"
   xmlns:inkscape="http://www.inkscape.org/namespaces/inkscape"
   sodipodi:docname="basic-f10.svg"
   inkscape:version="0.48+devel r10003 custom"
   sodipodi:version="0.32"
   id="svg2928"
   height="1052.3622047"
   width="744.09448819"
   version="1.1">
  <defs
     id="defs3" />
  <sodipodi:namedview
     inkscape:window-y="68"
     inkscape:window-x="440"
     inkscape:window-height="513"
     inkscape:window-width="751"
     inkscape:current-layer="layer1"
     inkscape:document-units="px"
     inkscape:cy="1062.6922"
     inkscape:cx="271.57576"
     inkscape:zoom="0.98994949"
     inkscape:pageshadow="2"
     inkscape:pageopacity="0.0"
     borderopacity="1.0"
     bordercolor="#666666"
     pagecolor="#ffffff"
     id="base"
     showgrid="false"
     inkscape:window-maximized="0" />
  <metadata
     id="metadata4">
    <rdf:RDF>
      <cc:Work
         rdf:about="">
        <dc:format>image/svg+xml</dc:format>
        <dc:type
           rdf:resource="http://purl.org/dc/dcmitype/StillImage" />
      </cc:Work>
    </rdf:RDF>
  </metadata>
  <g
     id="layer1"
     inkscape:groupmode="layer"
     inkscape:label="Layer 1">
    <path
       transform="matrix(0.988814,0.000000,0.000000,0.927344,3.801590,-1511.205)"
       style="font-size:12px;fill:#dbdbdb;fill-opacity:1;fill-rule:evenodd;stroke:#000000;stroke-width:0.0121052;stroke-opacity:1"
       d="m 67.136333,1653.0359 c 0,9.8338 -12.415244,17.8057 -27.730224,17.8057 -15.31498,0 -27.730225,-7.9719 -27.730225,-17.8057 0,-9.8338 12.415245,-17.8057 27.730225,-17.8057 15.31498,0 27.730224,7.9719 27.730224,17.8057 z"
       id="path1033" />
    <path
       transform="matrix(0.988814,0.000000,0.000000,0.927344,30.08856,-1511.205)"
       style="font-size:12px;fill:#dbdbdb;fill-opacity:1;fill-rule:evenodd;stroke:#000000;stroke-width:2.42105007;stroke-opacity:1"
       d="m 67.136333,1653.0359 c 0,9.8338 -12.415244,17.8057 -27.730224,17.8057 -15.31498,0 -27.730225,-7.9719 -27.730225,-17.8057 0,-9.8338 12.415245,-17.8057 27.730225,-17.8057 15.31498,0 27.730224,7.9719 27.730224,17.8057 z"
       id="path1034" />
    <path
       transform="matrix(0.988814,0.000000,0.000000,0.927344,62.94734,-1511.205)"
       style="font-size:12px;fill:#dbdbdb;fill-opacity:1;fill-rule:evenodd;stroke:#000000;stroke-width:9.6841898;stroke-opacity:1"
       d="m 67.136333,1653.0359 c 0,9.8338 -12.415244,17.8057 -27.730224,17.8057 -15.31498,0 -27.730225,-7.9719 -27.730225,-17.8057 0,-9.8338 12.415245,-17.8057 27.730225,-17.8057 15.31498,0 27.730224,7.9719 27.730224,17.8057 z"
       id="path1035" />
    <path
       transform="matrix(0.988814,0.000000,0.000000,0.927344,95.80570,-1511.205)"
       style="font-size:12px;fill:#dbdbdb;fill-opacity:1;fill-rule:evenodd;stroke:#000000;stroke-width:1.81578004;stroke-dasharray:1.81578, 3.63157;stroke-dashoffset:0;stroke-opacity:1"
       d="m 67.136333,1653.0359 c 0,9.8338 -12.415244,17.8057 -27.730224,17.8057 -15.31498,0 -27.730225,-7.9719 -27.730225,-17.8057 0,-9.8338 12.415245,-17.8057 27.730225,-17.8057 15.31498,0 27.730224,7.9719 27.730224,17.8057 z"
       id="path1036" />
    <path
       transform="matrix(0.988814,0.000000,0.000000,0.927344,131.9508,-1511.205)"
       style="font-size:12px;fill:#dbdbdb;fill-opacity:1;fill-rule:evenodd;stroke:#000000;stroke-width:1.81578004;stroke-dasharray:7.26312, 7.26312;stroke-dashoffset:0;stroke-opacity:1"
       d="m 67.136333,1653.0359 c 0,9.8338 -12.415244,17.8057 -27.730224,17.8057 -15.31498,0 -27.730225,-7.9719 -27.730225,-17.8057 0,-9.8338 12.415245,-17.8057 27.730225,-17.8057 15.31498,0 27.730224,7.9719 27.730224,17.8057 z"
       id="path1037" />
    <path
       transform="matrix(0.988814,0.000000,0.000000,0.927344,168.0951,-1511.205)"
       style="font-size:12px;fill:#dbdbdb;fill-opacity:1;fill-rule:evenodd;stroke:#000000;stroke-width:1.81578004;stroke-dasharray:7.26312, 3.63156, 1.81578, 3.63156;stroke-dashoffset:0;stroke-opacity:1"
       d="m 67.136333,1653.0359 c 0,9.8338 -12.415244,17.8057 -27.730224,17.8057 -15.31498,0 -27.730225,-7.9719 -27.730225,-17.8057 0,-9.8338 12.415245,-17.8057 27.730225,-17.8057 15.31498,0 27.730224,7.9719 27.730224,17.8057 z"
       id="path1038" />
    <path
       transform="matrix(0.988814,0.000000,0.000000,0.927344,204.2394,-1511.205)"
       style="font-size:12px;fill:#dbdbdb;fill-opacity:1;fill-rule:evenodd;stroke:#000000;stroke-width:0.84736598;stroke-dasharray:0.847366, 0.847366;stroke-dashoffset:0;stroke-opacity:1"
       d="m 67.136333,1653.0359 c 0,9.8338 -12.415244,17.8057 -27.730224,17.8057 -15.31498,0 -27.730225,-7.9719 -27.730225,-17.8057 0,-9.8338 12.415245,-17.8057 27.730225,-17.8057 15.31498,0 27.730224,7.9719 27.730224,17.8057 z"
       id="path1039" />
  </g>
</svg>
