<?xml version="1.0" encoding="UTF-8" standalone="no"?>
<!-- Created with Inkscape (http://www.inkscape.org/) -->
<svg
   xmlns:dc="http://purl.org/dc/elements/1.1/"
   xmlns:cc="http://web.resource.org/cc/"
   xmlns:rdf="http://www.w3.org/1999/02/22-rdf-syntax-ns#"
   xmlns:svg="http://www.w3.org/2000/svg"
   xmlns="http://www.w3.org/2000/svg"
   xmlns:sodipodi="http://sodipodi.sourceforge.net/DTD/sodipodi-0.dtd"
   xmlns:inkscape="http://www.inkscape.org/namespaces/inkscape"
   sodipodi:docname="advanced-f05.svg"
   sodipodi:docbase="/home/aaron/notes/inkdoc/advanced"
   inkscape:version="0.41+cvs"
   sodipodi:version="0.32"
   id="svg1945"
   height="1052.3622047"
   width="744.09448819">
  <defs
     id="defs3" />
  <sodipodi:namedview
     inkscape:window-y="21"
     inkscape:window-x="4"
     inkscape:window-height="513"
     inkscape:window-width="753"
     inkscape:current-layer="layer1"
     inkscape:document-units="px"
     inkscape:cy="520.00000"
     inkscape:cx="375.00000"
     inkscape:zoom="0.35000000"
     inkscape:pageshadow="2"
     inkscape:pageopacity="0.0"
     borderopacity="1.0"
     bordercolor="#666666"
     pagecolor="#ffffff"
     id="base" />
  <metadata
     id="metadata4">
    <rdf:RDF
       id="RDF5">
      <cc:Work
         id="Work6"
         rdf:about="">
        <dc:format
           id="format7">image/svg+xml</dc:format>
        <dc:type
           rdf:resource="http://purl.org/dc/dcmitype/StillImage"
           id="type9" />
      </cc:Work>
    </rdf:RDF>
  </metadata>
  <g
     id="layer1"
     inkscape:groupmode="layer"
     inkscape:label="Layer 1">
    <path
       id="path1796"
       d="M 155.75146,61.986600 L 129.62968,50.665900 L 125.76751,70.631400 L 118.33181,43.150200 L 100.31410,52.578900 L 117.16369,29.631200 L 98.558143,21.423100 L 127.00494,20.289000 L 121.82191,0.62500000 L 140.44488,22.158400 L 152.58732,5.8459000 L 147.36303,33.831800 L 167.68737,33.154400 L 142.54981,46.518800 L 155.75146,61.986600 z M 185.56335,52.557900 C 180.79713,65.053200 163.77883,70.178400 147.57609,63.998000 C 131.37335,57.817600 122.09155,42.660500 126.85777,30.165200 C 131.62405,17.669700 148.64230,12.544700 164.84504,18.725100 C 181.04778,24.905500 190.32963,40.062400 185.56335,52.557900 z "
       style="fill:#07ba88;fill-opacity:0.75000000;fill-rule:evenodd;stroke:#000000;stroke-width:1.0000000pt" />
  </g>
</svg>
